EESchema Schematic File Version 4
EELAYER 30 0
EELAYER END
$Descr A4 11693 8268
encoding utf-8
Sheet 1 1
Title "Battery Management Power System"
Date ""
Rev ""
Comp ""
Comment1 "CERN Open Hardware Licence v1.2 "
Comment2 ""
Comment3 ""
Comment4 ""
$EndDescr
$Comp
L lsf-kicad:PQ9-Connector PQ1
U 1 1 5DDC1279
P 9500 2000
F 0 "PQ1" H 9848 1968 50  0000 L CNN
F 1 "PQ9-Connector" H 9848 1877 50  0000 L CNN
F 2 "Connector_PinSocket_2.00mm:PinSocket_1x09_P2.00mm_Vertical" H 10000 2200 50  0001 C CNN
F 3 "https://libre.space/pq9ish" H 10000 2200 50  0001 C CNN
F 4 "SQT-109-03-LS" H 9500 2000 50  0001 C CNN "Part Number"
	1    9500 2000
	1    0    0    -1  
$EndComp
$Comp
L lsf-kicad:TPS62086 U1
U 1 1 5DDC1BE0
P 6450 2050
F 0 "U1" H 6100 1800 50  0000 R CNN
F 1 "TPS62086" H 6350 1700 50  0000 R CNN
F 2 "lsf-kicad-lib:Texas-VSON-7-HR" H 6450 2150 50  0001 C CNN
F 3 "http://www.ti.com/lit/ds/symlink/tps62085.pdf" H 6450 2150 50  0001 C CNN
F 4 "TPS62086RLTR" H 6450 2050 50  0001 C CNN "Part Number"
	1    6450 2050
	1    0    0    -1  
$EndComp
$Comp
L lsf-kicad:MAX17261METD+ U2
U 1 1 5DDC21E6
P 6800 4150
F 0 "U2" H 6900 4950 50  0000 C CNN
F 1 "MAX17261METD+" H 7150 4850 50  0000 C CNN
F 2 "lsf-kicad-lib:TDFN-14-1EP_3x3mm_P0.4mm_EP1.7x2.3mm" H 7900 3350 50  0001 C CNN
F 3 "https://datasheets.maximintegrated.com/en/ds/MAX17261.pdf" H 6800 4250 50  0001 C CNN
F 4 "MAX17261METD+" H 6800 4150 50  0001 C CNN "Part Number"
	1    6800 4150
	1    0    0    -1  
$EndComp
$Comp
L power:GND #PWR0101
U 1 1 5DDC9A53
P 9650 4900
F 0 "#PWR0101" H 9650 4650 50  0001 C CNN
F 1 "GND" H 9655 4727 50  0000 C CNN
F 2 "" H 9650 4900 50  0001 C CNN
F 3 "" H 9650 4900 50  0001 C CNN
	1    9650 4900
	1    0    0    -1  
$EndComp
Wire Wire Line
	9900 4700 9650 4700
Connection ~ 9650 4700
Wire Wire Line
	9650 4700 9650 4900
Wire Wire Line
	9900 4300 9650 4300
Connection ~ 9650 4300
Wire Wire Line
	9650 4300 9650 4700
Wire Wire Line
	9900 3900 9650 3900
Connection ~ 9650 3900
Wire Wire Line
	9650 3900 9650 4300
Wire Wire Line
	9900 3500 9650 3500
Wire Wire Line
	9650 3500 9650 3900
Wire Wire Line
	9900 3400 9750 3400
Wire Wire Line
	9750 3400 9750 3800
Wire Wire Line
	9900 3800 9750 3800
Connection ~ 9750 3800
Wire Wire Line
	9750 3800 9750 4200
Wire Wire Line
	9900 4200 9750 4200
Connection ~ 9750 4200
Wire Wire Line
	9750 4200 9750 4600
Wire Wire Line
	9900 4600 9750 4600
Connection ~ 9750 4600
$Comp
L power:GND #PWR0102
U 1 1 5DDCCE55
P 6450 2550
F 0 "#PWR0102" H 6450 2300 50  0001 C CNN
F 1 "GND" H 6455 2377 50  0000 C CNN
F 2 "" H 6450 2550 50  0001 C CNN
F 3 "" H 6450 2550 50  0001 C CNN
	1    6450 2550
	1    0    0    -1  
$EndComp
Wire Wire Line
	6450 2550 6450 2500
$Comp
L Device:C Cin1
U 1 1 5DDCDD0D
P 5500 2050
F 0 "Cin1" H 5500 2150 50  0000 L CNN
F 1 "22u" H 5500 1950 50  0000 L CNN
F 2 "Capacitors_SMD:C_0805" H 5538 1900 50  0001 C CNN
F 3 "~" H 5500 2050 50  0001 C CNN
F 4 "C2012X5R1A226M125AB " H 5500 2050 50  0001 C CNN "Part Number"
	1    5500 2050
	1    0    0    -1  
$EndComp
$Comp
L Device:C Cin2
U 1 1 5DDCDFA0
P 5850 2050
F 0 "Cin2" H 5850 2150 50  0000 L CNN
F 1 "100n" H 5850 1950 50  0000 L CNN
F 2 "Capacitors_SMD:C_0603" H 5888 1900 50  0001 C CNN
F 3 "~" H 5850 2050 50  0001 C CNN
F 4 "C0603C104K5RAC3121 " H 5850 2050 50  0001 C CNN "Part Number"
	1    5850 2050
	1    0    0    -1  
$EndComp
Wire Wire Line
	5850 1900 5850 1600
Wire Wire Line
	5850 1600 5500 1600
Wire Wire Line
	6350 1600 6350 1650
Wire Wire Line
	5500 1900 5500 1600
Connection ~ 5500 1600
Wire Wire Line
	6150 2050 6100 2050
Wire Wire Line
	6100 2050 6100 1600
Connection ~ 6100 1600
Wire Wire Line
	6100 1600 6350 1600
Wire Wire Line
	5850 2200 5850 2500
Wire Wire Line
	5850 2500 5500 2500
Connection ~ 6450 2500
Wire Wire Line
	6450 2500 6450 2450
Wire Wire Line
	5500 2200 5500 2500
Wire Wire Line
	6600 1600 6550 1600
Wire Wire Line
	6900 1600 6950 1600
$Comp
L Device:L_Core_Ferrite L?
U 1 1 5DDD6AA3
P 6750 1600
AR Path="/5DDD41C7/5DDD6AA3" Ref="L?"  Part="1" 
AR Path="/5DDD6AA3" Ref="L1"  Part="1" 
F 0 "L1" V 6975 1600 50  0000 C CNN
F 1 "0.47uH" V 6884 1600 50  0000 C CNN
F 2 "Inductors_SMD:L_Taiyo-Yuden_NR-40xx" H 6750 1600 50  0001 C CNN
F 3 "~" H 6750 1600 50  0001 C CNN
F 4 "XFL4015-471MEC" V 6750 1600 50  0001 C CNN "Part Number"
	1    6750 1600
	0    -1   -1   0   
$EndComp
Wire Wire Line
	6550 1650 6550 1600
Wire Wire Line
	6750 1950 6950 1950
Wire Wire Line
	6950 1950 6950 1600
Connection ~ 6950 1600
Wire Wire Line
	6950 1600 7050 1600
Wire Wire Line
	7200 1600 7200 2150
Connection ~ 7200 1600
Wire Wire Line
	6850 2150 6750 2150
Wire Wire Line
	7150 2150 7200 2150
$Comp
L Device:C Cout2
U 1 1 5DDE2524
P 7600 2050
F 0 "Cout2" H 7600 2150 50  0000 L CNN
F 1 "100n" H 7600 1950 50  0000 L CNN
F 2 "Capacitors_SMD:C_0603" H 7638 1900 50  0001 C CNN
F 3 "~" H 7600 2050 50  0001 C CNN
F 4 "C0603C104K5RAC3121 " H 7600 2050 50  0001 C CNN "Part Number"
	1    7600 2050
	1    0    0    -1  
$EndComp
$Comp
L Device:C Cout1
U 1 1 5DDE252A
P 7300 2050
F 0 "Cout1" H 7300 2150 50  0000 L CNN
F 1 "22u" H 7300 1950 50  0000 L CNN
F 2 "Capacitors_SMD:C_0805" H 7338 1900 50  0001 C CNN
F 3 "~" H 7300 2050 50  0001 C CNN
F 4 "C2012X5R1A226M125AB " H 7300 2050 50  0001 C CNN "Part Number"
	1    7300 2050
	1    0    0    -1  
$EndComp
Wire Wire Line
	7300 1900 7300 1600
Wire Wire Line
	7600 1900 7600 1600
Wire Wire Line
	7300 2200 7300 2500
Wire Wire Line
	7600 2200 7600 2500
Wire Wire Line
	6450 2500 7300 2500
Wire Wire Line
	7300 2500 7600 2500
Connection ~ 7300 2500
Wire Wire Line
	7200 1600 7300 1600
Wire Wire Line
	7600 1600 7300 1600
Connection ~ 7300 1600
Wire Wire Line
	7600 1600 7700 1600
Connection ~ 7600 1600
Connection ~ 5850 1600
Text GLabel 5400 1600 0    50   Input ~ 0
EPS-PWR
Text GLabel 7700 1600 2    50   Input ~ 0
3v3
$Comp
L power:GND #PWR0103
U 1 1 5DDEB50C
P 9500 2700
F 0 "#PWR0103" H 9500 2450 50  0001 C CNN
F 1 "GND" H 9505 2527 50  0000 C CNN
F 2 "" H 9500 2700 50  0001 C CNN
F 3 "" H 9500 2700 50  0001 C CNN
	1    9500 2700
	1    0    0    -1  
$EndComp
$Comp
L Device:R Rs1
U 1 1 5DE07175
P 5950 4950
F 0 "Rs1" V 5743 4950 50  0000 C CNN
F 1 "20m 0.5%" V 5834 4950 50  0000 C CNN
F 2 "Resistor_SMD:R_0603_1608Metric" V 5880 4950 50  0001 C CNN
F 3 "~" H 5950 4950 50  0001 C CNN
F 4 "PE0603FRF070R02L" H 5950 4950 50  0001 C CNN "Part Number"
	1    5950 4950
	0    1    1    0   
$EndComp
Wire Wire Line
	7000 4850 7000 4950
Wire Wire Line
	7000 4950 6800 4950
Connection ~ 6800 4950
Wire Wire Line
	6100 4950 6150 4950
Wire Wire Line
	6200 4550 6150 4550
Wire Wire Line
	6150 4550 6150 4950
Wire Wire Line
	6200 4450 5750 4450
Wire Wire Line
	5750 4450 5750 4950
Wire Wire Line
	5750 4950 5800 4950
Wire Wire Line
	5750 4950 5700 4950
Connection ~ 5750 4950
Text GLabel 6150 5050 2    50   Input ~ 0
Vbat-
$Comp
L Device:C C21
U 1 1 5DE1A3AE
P 7800 3400
F 0 "C21" H 7915 3446 50  0000 L CNN
F 1 "100n" H 7915 3355 50  0000 L CNN
F 2 "Capacitors_SMD:C_0603" H 7838 3250 50  0001 C CNN
F 3 "~" H 7800 3400 50  0001 C CNN
F 4 "C0603C104K5RAC3121 " H 7800 3400 50  0001 C CNN "Part Number"
	1    7800 3400
	1    0    0    -1  
$EndComp
Wire Wire Line
	7800 3250 7800 3000
Wire Wire Line
	7800 3750 7800 3550
Text GLabel 9750 4950 2    50   Input ~ 0
Vbat+
Wire Wire Line
	9750 4600 9750 4950
Text GLabel 5700 4950 0    50   Input ~ 0
KILL-GND
Connection ~ 6150 4950
Text GLabel 8700 1050 0    50   Input ~ 0
3v3
Wire Wire Line
	8700 1050 8800 1050
Wire Wire Line
	9050 1050 9050 1150
Wire Wire Line
	8800 1150 8800 1050
Connection ~ 8800 1050
Wire Wire Line
	8800 1050 9050 1050
$Comp
L Device:R R21
U 1 1 5DE69448
P 8800 1300
F 0 "R21" V 8900 1400 50  0000 R CNN
F 1 "10k" V 8800 1400 50  0000 R CNN
F 2 "Resistors_SMD:R_0603" V 8730 1300 50  0001 C CNN
F 3 "~" H 8800 1300 50  0001 C CNN
F 4 "AC0603DR-0710KL" H 8800 1300 50  0001 C CNN "Part Number"
	1    8800 1300
	-1   0    0    1   
$EndComp
$Comp
L Device:R R22
U 1 1 5DE67E74
P 9050 1300
F 0 "R22" V 9150 1400 50  0000 R CNN
F 1 "10k" V 9050 1400 50  0000 R CNN
F 2 "Resistors_SMD:R_0603" V 8980 1300 50  0001 C CNN
F 3 "~" H 9050 1300 50  0001 C CNN
F 4 "AC0603DR-0710KL" H 9050 1300 50  0001 C CNN "Part Number"
	1    9050 1300
	-1   0    0    1   
$EndComp
Text GLabel 8700 1600 0    50   Input ~ 0
SCL
Text GLabel 8700 1700 0    50   Input ~ 0
SDA
$Comp
L Connector_Generic:Conn_02x03_Odd_Even J1
U 1 1 5DDF04C6
P 10000 5500
F 0 "J1" H 10050 5817 50  0000 C CNN
F 1 "Conn_02x03_Odd_Even" H 10050 5726 50  0000 C CNN
F 2 "lsf-kicad-lib:hrs-df11-6dp-2dsa" H 10000 5500 50  0001 C CNN
F 3 "~" H 10000 5500 50  0001 C CNN
F 4 "DF11-6DP-2DSA(01) " H 10000 5500 50  0001 C CNN "Part Number"
	1    10000 5500
	1    0    0    -1  
$EndComp
$Comp
L Connector_Generic:Conn_02x03_Odd_Even J2
U 1 1 5DDF1D80
P 10000 6200
F 0 "J2" H 10050 6517 50  0000 C CNN
F 1 "Conn_02x03_Odd_Even" H 10050 6426 50  0000 C CNN
F 2 "lsf-kicad-lib:hrs-df11-6dp-2dsa" H 10000 6200 50  0001 C CNN
F 3 "~" H 10000 6200 50  0001 C CNN
F 4 "DF11-6DP-2DSA(01) " H 10000 6200 50  0001 C CNN "Part Number"
	1    10000 6200
	1    0    0    -1  
$EndComp
Wire Wire Line
	9800 6300 9750 6300
Text GLabel 9700 6100 0    50   Input ~ 0
Vbat+
Text GLabel 10400 6200 2    50   Input ~ 0
Vbat-
Text GLabel 10400 6300 2    50   Input ~ 0
Tbat
Wire Wire Line
	10300 5500 10450 5500
Wire Wire Line
	10300 5600 10450 5600
$Comp
L power:GND #PWR0104
U 1 1 5DE05690
P 9700 5600
F 0 "#PWR0104" H 9700 5350 50  0001 C CNN
F 1 "GND" H 9705 5427 50  0000 C CNN
F 2 "" H 9700 5600 50  0001 C CNN
F 3 "" H 9700 5600 50  0001 C CNN
	1    9700 5600
	1    0    0    -1  
$EndComp
Text GLabel 9700 5500 0    50   Input ~ 0
Vbat+
Text Notes 8350 6300 0    50   ~ 0
1 Vbat1+  /  2 Vbat2+\n3 Vbat1-  /  4 Vbat2-\n5 Cbat1    /  6 Tbat
Text Notes 8350 5600 0    50   ~ 0
1 Kill21   /  2 Kill22\n3 Kill11   /  4 Kill12\n5 TopPV- /  6 TopPV+\n
Text GLabel 10450 5500 2    50   Input ~ 0
EPS-PWR
$Comp
L power:GND #PWR0105
U 1 1 5DE46B1D
P 10950 5400
F 0 "#PWR0105" H 10950 5150 50  0001 C CNN
F 1 "GND" H 10955 5227 50  0000 C CNN
F 2 "" H 10950 5400 50  0001 C CNN
F 3 "" H 10950 5400 50  0001 C CNN
	1    10950 5400
	1    0    0    -1  
$EndComp
Wire Wire Line
	10300 5400 10950 5400
Text GLabel 9700 5400 0    50   Input ~ 0
KILL-GND
Wire Wire Line
	6200 4250 6050 4250
Text GLabel 6050 4250 0    50   Input ~ 0
Tbat
Text GLabel 6100 4150 0    50   Input ~ 0
SCL
Text GLabel 6100 4050 0    50   Input ~ 0
SDA
Wire Wire Line
	6100 4150 6200 4150
Wire Wire Line
	6100 4050 6200 4050
$Comp
L Device:C C22
U 1 1 5DEB2DF8
P 7600 3750
F 0 "C22" V 7852 3750 50  0000 C CNN
F 1 "470n" V 7761 3750 50  0000 C CNN
F 2 "Capacitors_SMD:C_0603" H 7638 3600 50  0001 C CNN
F 3 "~" H 7600 3750 50  0001 C CNN
F 4 "C0603C474K4RACAUTO " H 7600 3750 50  0001 C CNN "Part Number"
	1    7600 3750
	0    -1   -1   0   
$EndComp
Wire Wire Line
	7800 3750 7750 3750
Text Notes 7650 4050 2    50   ~ 0
Not_used
Wire Wire Line
	7400 3950 7800 3950
Connection ~ 7800 3950
Wire Wire Line
	7800 3750 7800 3950
Wire Wire Line
	7400 3750 7450 3750
Wire Wire Line
	9500 2600 9500 2700
Wire Wire Line
	6800 4850 6800 4950
Wire Wire Line
	6150 4950 6800 4950
Wire Wire Line
	7000 4950 7800 4950
Wire Wire Line
	7800 3950 7800 4950
Connection ~ 7000 4950
Connection ~ 7800 3750
$Comp
L Device:R R23
U 1 1 5DF324DD
P 5550 3200
F 0 "R23" H 5620 3246 50  0000 L CNN
F 1 "300k 0.1%" H 5620 3155 50  0000 L CNN
F 2 "Resistors_SMD:R_0603" V 5480 3200 50  0001 C CNN
F 3 "~" H 5550 3200 50  0001 C CNN
F 4 "ERA-3AEB304V" H 5550 3200 50  0001 C CNN "Part Number"
	1    5550 3200
	1    0    0    -1  
$EndComp
Wire Wire Line
	5550 3000 5550 3050
Wire Wire Line
	5150 3000 5550 3000
Wire Wire Line
	5550 3850 6200 3850
Wire Wire Line
	5550 3850 5550 3900
Text GLabel 5150 4250 0    50   Input ~ 0
Vbat-
Wire Wire Line
	5550 4250 5550 4200
Wire Wire Line
	6800 3450 6800 3000
Text Notes 4100 1900 0    50   ~ 0
VinMin = 3.0V\nVinMax = 4.3V\nVout = 3v3\nIout = 1.0A
Text GLabel 8700 1900 0    50   Input ~ 0
3v3
Wire Wire Line
	8700 1900 9100 1900
Wire Wire Line
	6750 2050 7050 2050
Wire Wire Line
	7050 2050 7050 1600
Connection ~ 7050 1600
Wire Wire Line
	7050 1600 7200 1600
Wire Wire Line
	5500 1600 5400 1600
Wire Wire Line
	5850 1600 6100 1600
Connection ~ 5850 2500
Wire Wire Line
	5850 2500 6450 2500
$Comp
L Connector_Generic:Conn_01x02 PG1
U 1 1 5E1AD08A
P 10100 3400
F 0 "PG1" H 10180 3392 50  0000 L CNN
F 1 "Conn_01x02" H 10180 3301 50  0000 L CNN
F 2 "lsf-kicad-lib:MillMax_8290-22-002-20-001101_1x02_P2.54mm_Horizontal" H 10100 3400 50  0001 C CNN
F 3 "~" H 10100 3400 50  0001 C CNN
F 4 "829-22-002-20-001101" H 10100 3400 50  0001 C CNN "Part Number"
	1    10100 3400
	1    0    0    -1  
$EndComp
$Comp
L Connector_Generic:Conn_01x02 PG2
U 1 1 5E1AE19D
P 10100 3800
F 0 "PG2" H 10180 3792 50  0000 L CNN
F 1 "Conn_01x02" H 10180 3701 50  0000 L CNN
F 2 "lsf-kicad-lib:MillMax_8290-22-002-20-001101_1x02_P2.54mm_Horizontal" H 10100 3800 50  0001 C CNN
F 3 "~" H 10100 3800 50  0001 C CNN
F 4 "829-22-002-20-001101" H 10100 3800 50  0001 C CNN "Part Number"
	1    10100 3800
	1    0    0    -1  
$EndComp
$Comp
L Connector_Generic:Conn_01x02 PG3
U 1 1 5E1AE4D2
P 10100 4200
F 0 "PG3" H 10180 4192 50  0000 L CNN
F 1 "Conn_01x02" H 10180 4101 50  0000 L CNN
F 2 "lsf-kicad-lib:MillMax_8290-22-002-20-001101_1x02_P2.54mm_Horizontal" H 10100 4200 50  0001 C CNN
F 3 "~" H 10100 4200 50  0001 C CNN
F 4 "829-22-002-20-001101" H 10100 4200 50  0001 C CNN "Part Number"
	1    10100 4200
	1    0    0    -1  
$EndComp
$Comp
L Connector_Generic:Conn_01x02 PG4
U 1 1 5E1AE7E4
P 10100 4600
F 0 "PG4" H 10180 4592 50  0000 L CNN
F 1 "Conn_01x02" H 10180 4501 50  0000 L CNN
F 2 "lsf-kicad-lib:MillMax_8290-22-002-20-001101_1x02_P2.54mm_Horizontal" H 10100 4600 50  0001 C CNN
F 3 "~" H 10100 4600 50  0001 C CNN
F 4 "829-22-002-20-001101" H 10100 4600 50  0001 C CNN "Part Number"
	1    10100 4600
	1    0    0    -1  
$EndComp
$Comp
L power:PWR_FLAG #FLG0101
U 1 1 5E1B48DC
P 4900 2200
F 0 "#FLG0101" H 4900 2275 50  0001 C CNN
F 1 "PWR_FLAG" H 4900 2373 50  0000 C CNN
F 2 "" H 4900 2200 50  0001 C CNN
F 3 "~" H 4900 2200 50  0001 C CNN
	1    4900 2200
	1    0    0    -1  
$EndComp
$Comp
L power:GND #PWR0106
U 1 1 5E1B5C08
P 4900 2300
F 0 "#PWR0106" H 4900 2050 50  0001 C CNN
F 1 "GND" H 4905 2127 50  0000 C CNN
F 2 "" H 4900 2300 50  0001 C CNN
F 3 "" H 4900 2300 50  0001 C CNN
	1    4900 2300
	1    0    0    -1  
$EndComp
Wire Wire Line
	4900 2200 4900 2300
$Comp
L power:PWR_FLAG #FLG0102
U 1 1 5E1C105A
P 4500 2200
F 0 "#FLG0102" H 4500 2275 50  0001 C CNN
F 1 "PWR_FLAG" H 4500 2373 50  0000 C CNN
F 2 "" H 4500 2200 50  0001 C CNN
F 3 "~" H 4500 2200 50  0001 C CNN
	1    4500 2200
	1    0    0    -1  
$EndComp
Text GLabel 4500 2300 3    50   Input ~ 0
Vbat-
Text GLabel 4100 2300 3    50   Input ~ 0
EPS-PWR
$Comp
L power:PWR_FLAG #FLG0103
U 1 1 5E1C1483
P 4100 2200
F 0 "#FLG0103" H 4100 2275 50  0001 C CNN
F 1 "PWR_FLAG" H 4100 2373 50  0000 C CNN
F 2 "" H 4100 2200 50  0001 C CNN
F 3 "~" H 4100 2200 50  0001 C CNN
	1    4100 2200
	1    0    0    -1  
$EndComp
Wire Wire Line
	4100 2200 4100 2300
Wire Wire Line
	6800 3000 7800 3000
NoConn ~ 9100 1800
NoConn ~ 9100 2000
NoConn ~ 9100 2100
NoConn ~ 9100 2200
Wire Wire Line
	4500 2200 4500 2300
$Comp
L Device:R R1
U 1 1 5DDD7DA8
P 7000 2150
F 0 "R1" V 7100 2150 50  0000 C CNN
F 1 "1M" V 7000 2150 50  0000 C CNN
F 2 "Resistors_SMD:R_0603" V 6930 2150 50  0001 C CNN
F 3 "~" H 7000 2150 50  0001 C CNN
F 4 "SG73G1JTTD1004D" H 7000 2150 50  0001 C CNN "Part Number"
	1    7000 2150
	0    1    1    0   
$EndComp
Text Label 5700 3850 0    50   ~ 0
CELLX
Text Label 6750 2150 0    50   ~ 0
PG
Wire Wire Line
	9700 6100 9800 6100
Text GLabel 9700 6200 0    50   Input ~ 0
Vbat-
Text GLabel 10400 6100 2    50   Input ~ 0
Vbat+
Wire Wire Line
	10300 6200 10400 6200
Wire Wire Line
	10300 6100 10400 6100
Wire Wire Line
	10300 6300 10400 6300
Wire Wire Line
	9750 6300 9750 6200
Wire Wire Line
	9750 6200 9700 6200
Wire Wire Line
	9800 6200 9750 6200
Connection ~ 9750 6200
Wire Wire Line
	9700 5400 9800 5400
Wire Wire Line
	9700 5600 9800 5600
Wire Wire Line
	9700 5500 9800 5500
Text GLabel 10450 5600 2    50   Input ~ 0
Vbat+
$Comp
L Device:R Rs2
U 1 1 5DE2BF92
P 5950 5150
F 0 "Rs2" V 6065 5150 50  0000 C CNN
F 1 "20m 0.5%" V 6156 5150 50  0000 C CNN
F 2 "Resistor_SMD:R_0603_1608Metric" V 5880 5150 50  0001 C CNN
F 3 "~" H 5950 5150 50  0001 C CNN
F 4 "PE0603FRF070R02L" H 5950 5150 50  0001 C CNN "Part Number"
	1    5950 5150
	0    1    1    0   
$EndComp
Wire Wire Line
	5800 5150 5750 5150
Wire Wire Line
	5750 5150 5750 4950
Wire Wire Line
	6150 5150 6100 5150
Wire Wire Line
	6150 4950 6150 5150
Text GLabel 4800 3200 0    50   Input ~ 0
EPS-PWR
$Comp
L power:PWR_FLAG #FLG0104
U 1 1 5E1F2D12
P 5550 3000
F 0 "#FLG0104" H 5550 3075 50  0001 C CNN
F 1 "PWR_FLAG" H 5550 3173 50  0000 C CNN
F 2 "" H 5550 3000 50  0001 C CNN
F 3 "~" H 5550 3000 50  0001 C CNN
	1    5550 3000
	1    0    0    -1  
$EndComp
Connection ~ 5550 3000
$Comp
L Device:R R24
U 1 1 5DF32DAA
P 5550 4050
F 0 "R24" V 5450 3950 50  0000 L CNN
F 1 "200k 0.1%" V 5650 3850 50  0000 L CNN
F 2 "Resistors_SMD:R_0603" V 5480 4050 50  0001 C CNN
F 3 "~" H 5550 4050 50  0001 C CNN
F 4 "ERA-3AEB204V" H 5550 4050 50  0001 C CNN "Part Number"
	1    5550 4050
	1    0    0    -1  
$EndComp
NoConn ~ 6200 3750
Wire Wire Line
	5150 4250 5550 4250
Connection ~ 5550 3850
Wire Wire Line
	5550 3350 5550 3850
Wire Wire Line
	6800 3000 5550 3000
Connection ~ 6800 3000
Text Notes 6475 1225 0    50   ~ 0
PG/R1: If unused, leave it floating
Text Notes 9125 1375 0    50   ~ 0
R21, R22: Must be choosed according\nto the connected device
Wire Wire Line
	8700 1600 9050 1600
Wire Wire Line
	8700 1700 8800 1700
Wire Wire Line
	8800 1450 8800 1700
Connection ~ 8800 1700
Wire Wire Line
	8800 1700 9100 1700
Wire Wire Line
	9050 1450 9050 1600
Connection ~ 9050 1600
Wire Wire Line
	9050 1600 9100 1600
$Comp
L Jumper:SolderJumper_3_Open JP1
U 1 1 614504B2
P 5000 3000
F 0 "JP1" V 5000 3068 50  0000 L CNN
F 1 "SolderJumper_3_Open" V 4955 3067 50  0001 L CNN
F 2 "Jumper:SolderJumper-3_P1.3mm_Open_RoundedPad1.0x1.5mm" H 5000 3000 50  0001 C CNN
F 3 "~" H 5000 3000 50  0001 C CNN
	1    5000 3000
	0    -1   -1   0   
$EndComp
Text GLabel 4800 2800 0    50   Input ~ 0
Vbat+
Wire Wire Line
	4800 2800 5000 2800
Wire Wire Line
	4800 3200 5000 3200
$EndSCHEMATC
